<?xml version="1.0" encoding="utf-8"?>
<!DOCTYPE eagle SYSTEM "eagle.dtd">
<eagle version="7.3.0">
<drawing>
<settings>
<setting alwaysvectorfont="no"/>
<setting verticaltext="up"/>
</settings>
<grid distance="0.01" unitdist="inch" unit="inch" style="lines" multiple="1" display="yes" altdistance="0.005" altunitdist="inch" altunit="inch"/>
<layers>
<layer number="1" name="Top" color="4" fill="1" visible="yes" active="yes"/>
<layer number="16" name="Bottom" color="1" fill="1" visible="yes" active="yes"/>
<layer number="17" name="Pads" color="2" fill="1" visible="yes" active="yes"/>
<layer number="18" name="Vias" color="2" fill="1" visible="yes" active="yes"/>
<layer number="19" name="Unrouted" color="6" fill="1" visible="yes" active="yes"/>
<layer number="20" name="Dimension" color="15" fill="1" visible="yes" active="yes"/>
<layer number="21" name="tPlace" color="16" fill="1" visible="yes" active="yes"/>
<layer number="22" name="bPlace" color="14" fill="1" visible="yes" active="yes"/>
<layer number="23" name="tOrigins" color="15" fill="1" visible="yes" active="yes"/>
<layer number="24" name="bOrigins" color="15" fill="1" visible="yes" active="yes"/>
<layer number="25" name="tNames" color="7" fill="1" visible="yes" active="yes"/>
<layer number="26" name="bNames" color="7" fill="1" visible="no" active="yes"/>
<layer number="27" name="tValues" color="7" fill="1" visible="no" active="yes"/>
<layer number="28" name="bValues" color="7" fill="1" visible="no" active="yes"/>
<layer number="29" name="tStop" color="7" fill="3" visible="no" active="yes"/>
<layer number="30" name="bStop" color="7" fill="6" visible="no" active="yes"/>
<layer number="31" name="tCream" color="7" fill="4" visible="no" active="yes"/>
<layer number="32" name="bCream" color="7" fill="5" visible="no" active="yes"/>
<layer number="33" name="tFinish" color="6" fill="3" visible="no" active="yes"/>
<layer number="34" name="bFinish" color="6" fill="6" visible="no" active="yes"/>
<layer number="35" name="tGlue" color="7" fill="4" visible="no" active="yes"/>
<layer number="36" name="bGlue" color="7" fill="5" visible="no" active="yes"/>
<layer number="37" name="tTest" color="7" fill="1" visible="no" active="yes"/>
<layer number="38" name="bTest" color="7" fill="1" visible="no" active="yes"/>
<layer number="39" name="tKeepout" color="4" fill="11" visible="no" active="yes"/>
<layer number="40" name="bKeepout" color="1" fill="11" visible="no" active="yes"/>
<layer number="41" name="tRestrict" color="4" fill="10" visible="no" active="yes"/>
<layer number="42" name="bRestrict" color="1" fill="10" visible="no" active="yes"/>
<layer number="43" name="vRestrict" color="2" fill="10" visible="no" active="yes"/>
<layer number="44" name="Drills" color="7" fill="1" visible="no" active="yes"/>
<layer number="45" name="Holes" color="7" fill="1" visible="yes" active="yes"/>
<layer number="46" name="Milling" color="3" fill="1" visible="no" active="yes"/>
<layer number="47" name="Measures" color="7" fill="1" visible="no" active="yes"/>
<layer number="48" name="Document" color="7" fill="1" visible="no" active="yes"/>
<layer number="49" name="Reference" color="7" fill="1" visible="no" active="yes"/>
<layer number="50" name="dxf" color="7" fill="1" visible="no" active="no"/>
<layer number="51" name="tDocu" color="6" fill="1" visible="yes" active="yes"/>
<layer number="52" name="bDocu" color="7" fill="1" visible="no" active="yes"/>
<layer number="53" name="tGND_GNDA" color="7" fill="9" visible="no" active="no"/>
<layer number="54" name="bGND_GNDA" color="1" fill="9" visible="no" active="no"/>
<layer number="56" name="wert" color="7" fill="1" visible="no" active="no"/>
<layer number="57" name="tCAD" color="7" fill="1" visible="no" active="no"/>
<layer number="59" name="tCarbon" color="7" fill="1" visible="no" active="no"/>
<layer number="60" name="bCarbon" color="7" fill="1" visible="no" active="no"/>
<layer number="90" name="Modules" color="5" fill="1" visible="no" active="no"/>
<layer number="91" name="Nets" color="2" fill="1" visible="no" active="no"/>
<layer number="92" name="Busses" color="1" fill="1" visible="no" active="no"/>
<layer number="93" name="Pins" color="2" fill="1" visible="no" active="no"/>
<layer number="94" name="Symbols" color="4" fill="1" visible="no" active="no"/>
<layer number="95" name="Names" color="7" fill="1" visible="no" active="no"/>
<layer number="96" name="Values" color="7" fill="1" visible="no" active="no"/>
<layer number="97" name="Info" color="7" fill="1" visible="no" active="no"/>
<layer number="98" name="Guide" color="6" fill="1" visible="no" active="no"/>
<layer number="99" name="SpiceOrder" color="7" fill="1" visible="no" active="no"/>
<layer number="100" name="Muster" color="7" fill="1" visible="no" active="no"/>
<layer number="101" name="Patch_Top" color="12" fill="4" visible="no" active="yes"/>
<layer number="102" name="Vscore" color="7" fill="1" visible="no" active="yes"/>
<layer number="103" name="tMap" color="7" fill="1" visible="no" active="yes"/>
<layer number="104" name="Name" color="16" fill="1" visible="no" active="yes"/>
<layer number="105" name="tPlate" color="7" fill="1" visible="no" active="yes"/>
<layer number="106" name="bPlate" color="7" fill="1" visible="no" active="yes"/>
<layer number="107" name="Crop" color="7" fill="1" visible="no" active="yes"/>
<layer number="108" name="tplace-old" color="10" fill="1" visible="no" active="yes"/>
<layer number="109" name="ref-old" color="11" fill="1" visible="no" active="yes"/>
<layer number="110" name="fp0" color="7" fill="1" visible="no" active="yes"/>
<layer number="111" name="LPC17xx" color="7" fill="1" visible="no" active="yes"/>
<layer number="112" name="tSilk" color="7" fill="1" visible="no" active="yes"/>
<layer number="113" name="IDFDebug" color="4" fill="1" visible="no" active="yes"/>
<layer number="114" name="Badge_Outline" color="7" fill="1" visible="no" active="yes"/>
<layer number="115" name="ReferenceISLANDS" color="7" fill="1" visible="no" active="yes"/>
<layer number="116" name="Patch_BOT" color="9" fill="4" visible="no" active="yes"/>
<layer number="118" name="Rect_Pads" color="7" fill="1" visible="no" active="yes"/>
<layer number="121" name="_tsilk" color="7" fill="1" visible="no" active="yes"/>
<layer number="122" name="_bsilk" color="7" fill="1" visible="no" active="yes"/>
<layer number="123" name="tTestmark" color="7" fill="1" visible="no" active="yes"/>
<layer number="124" name="bTestmark" color="7" fill="1" visible="no" active="yes"/>
<layer number="125" name="_tNames" color="7" fill="1" visible="no" active="yes"/>
<layer number="126" name="_bNames" color="7" fill="1" visible="no" active="yes"/>
<layer number="127" name="_tValues" color="7" fill="1" visible="no" active="yes"/>
<layer number="128" name="_bValues" color="7" fill="1" visible="no" active="yes"/>
<layer number="129" name="Mask" color="7" fill="1" visible="no" active="yes"/>
<layer number="131" name="tAdjust" color="7" fill="1" visible="no" active="yes"/>
<layer number="132" name="bAdjust" color="7" fill="1" visible="no" active="yes"/>
<layer number="144" name="Drill_legend" color="7" fill="1" visible="no" active="yes"/>
<layer number="150" name="Notes" color="7" fill="1" visible="no" active="yes"/>
<layer number="151" name="HeatSink" color="7" fill="1" visible="no" active="yes"/>
<layer number="152" name="_bDocu" color="7" fill="1" visible="no" active="yes"/>
<layer number="153" name="FabDoc1" color="7" fill="1" visible="no" active="yes"/>
<layer number="154" name="FabDoc2" color="7" fill="1" visible="no" active="yes"/>
<layer number="155" name="FabDoc3" color="7" fill="1" visible="no" active="yes"/>
<layer number="199" name="Contour" color="7" fill="1" visible="no" active="yes"/>
<layer number="200" name="200bmp" color="1" fill="10" visible="no" active="yes"/>
<layer number="201" name="201bmp" color="2" fill="10" visible="no" active="yes"/>
<layer number="202" name="202bmp" color="3" fill="10" visible="no" active="yes"/>
<layer number="203" name="203bmp" color="4" fill="10" visible="no" active="yes"/>
<layer number="204" name="204bmp" color="5" fill="10" visible="no" active="yes"/>
<layer number="205" name="205bmp" color="6" fill="10" visible="no" active="yes"/>
<layer number="206" name="206bmp" color="7" fill="10" visible="no" active="yes"/>
<layer number="207" name="207bmp" color="8" fill="10" visible="no" active="yes"/>
<layer number="208" name="208bmp" color="9" fill="10" visible="no" active="yes"/>
<layer number="209" name="209bmp" color="7" fill="1" visible="no" active="yes"/>
<layer number="210" name="210bmp" color="7" fill="1" visible="no" active="yes"/>
<layer number="211" name="211bmp" color="7" fill="1" visible="no" active="yes"/>
<layer number="212" name="212bmp" color="7" fill="1" visible="no" active="yes"/>
<layer number="213" name="213bmp" color="7" fill="1" visible="no" active="yes"/>
<layer number="214" name="214bmp" color="7" fill="1" visible="no" active="yes"/>
<layer number="215" name="215bmp" color="7" fill="1" visible="no" active="yes"/>
<layer number="216" name="216bmp" color="7" fill="1" visible="no" active="yes"/>
<layer number="217" name="217bmp" color="18" fill="1" visible="no" active="no"/>
<layer number="218" name="218bmp" color="19" fill="1" visible="no" active="no"/>
<layer number="219" name="219bmp" color="20" fill="1" visible="no" active="no"/>
<layer number="220" name="220bmp" color="21" fill="1" visible="no" active="no"/>
<layer number="221" name="221bmp" color="22" fill="1" visible="no" active="no"/>
<layer number="222" name="222bmp" color="23" fill="1" visible="no" active="no"/>
<layer number="223" name="223bmp" color="24" fill="1" visible="no" active="no"/>
<layer number="224" name="224bmp" color="25" fill="1" visible="no" active="no"/>
<layer number="225" name="225bmp" color="7" fill="1" visible="no" active="yes"/>
<layer number="226" name="226bmp" color="7" fill="1" visible="no" active="yes"/>
<layer number="227" name="227bmp" color="7" fill="1" visible="no" active="yes"/>
<layer number="228" name="228bmp" color="7" fill="1" visible="no" active="yes"/>
<layer number="229" name="229bmp" color="7" fill="1" visible="no" active="yes"/>
<layer number="230" name="230bmp" color="7" fill="1" visible="no" active="yes"/>
<layer number="231" name="231bmp" color="7" fill="1" visible="no" active="yes"/>
<layer number="248" name="Housing" color="7" fill="1" visible="no" active="yes"/>
<layer number="249" name="Edge" color="7" fill="1" visible="no" active="yes"/>
<layer number="250" name="Descript" color="3" fill="1" visible="no" active="no"/>
<layer number="251" name="SMDround" color="12" fill="11" visible="no" active="no"/>
<layer number="254" name="cooling" color="7" fill="1" visible="no" active="yes"/>
<layer number="255" name="routoute" color="7" fill="1" visible="no" active="yes"/>
</layers>
<board>
<plain>
<wire x1="0" y1="0" x2="37.77" y2="0" width="0" layer="20"/>
<wire x1="37.77" y1="0" x2="37.77" y2="30.47" width="0" layer="20"/>
<wire x1="37.77" y1="30.47" x2="0" y2="30.47" width="0" layer="20"/>
<wire x1="0" y1="30.47" x2="0" y2="0" width="0" layer="20"/>
<text x="15.748" y="23.368" size="1.27" layer="25" rot="R90">PWR</text>
<text x="26.162" y="27.178" size="1.27" layer="25" rot="R90">R</text>
<text x="23.622" y="27.178" size="1.27" layer="25" rot="R90">G</text>
<text x="21.082" y="27.178" size="1.27" layer="25" rot="R90">B</text>
<text x="25.908" y="2.032" size="1.27" layer="25" rot="R90">R</text>
<text x="22.098" y="3.302" size="1.27" layer="25" rot="R270">G</text>
<text x="19.558" y="3.302" size="1.27" layer="25" rot="R270">B</text>
<text x="14.478" y="7.112" size="1.27" layer="25" rot="R270">GND</text>
<hole x="3.81" y="3.81" drill="3.2"/>
<hole x="3.81" y="26.67" drill="3.2"/>
<hole x="31.75" y="26.67" drill="3.2"/>
<hole x="31.75" y="3.81" drill="3.2"/>
<text x="32.766" y="13.208" size="1.27" layer="25" rot="R90">LED Driver</text>
<text x="35.052" y="16.764" size="1.27" layer="25" rot="R90">v1</text>
</plain>
<libraries>
<library name="SparkFun-Aesthetics">
<description>&lt;h3&gt;SparkFun Electronics' preferred foot prints&lt;/h3&gt;
In this library you'll find non-functional items- supply symbols, logos, notations, frame blocks, etc.&lt;br&gt;&lt;br&gt;
We've spent an enormous amount of time creating and checking these footprints and parts, but it is the end user's responsibility to ensure correctness and suitablity for a given componet or application. If you enjoy using this library, please buy one of our products at www.sparkfun.com.
&lt;br&gt;&lt;br&gt;
&lt;b&gt;Licensing:&lt;/b&gt; Creative Commons ShareAlike 4.0 International - https://creativecommons.org/licenses/by-sa/4.0/ 
&lt;br&gt;&lt;br&gt;
You are welcome to use this library for commercial purposes. For attribution, we ask that when you begin to sell your device using our footprint, you email us with a link to the product being sold. We want bragging rights that we helped (in a very small part) to create your 8th world wonder. We would like the opportunity to feature your device on our homepage.</description>
<packages>
<package name="OSHW-LOGO-S">
<polygon width="0.15" layer="21">
<vertex x="0.3947" y="-0.9528" curve="9.498218"/>
<vertex x="0.5465" y="-0.8746"/>
<vertex x="0.9235" y="-1.182"/>
<vertex x="1.182" y="-0.9235"/>
<vertex x="0.8746" y="-0.5465" curve="19.000773"/>
<vertex x="1.0049" y="-0.232"/>
<vertex x="1.4888" y="-0.1828"/>
<vertex x="1.4888" y="0.1828"/>
<vertex x="1.0049" y="0.232" curve="19.000773"/>
<vertex x="0.8746" y="0.5465"/>
<vertex x="1.182" y="0.9235"/>
<vertex x="0.9235" y="1.182"/>
<vertex x="0.5465" y="0.8746" curve="19.000773"/>
<vertex x="0.232" y="1.0049"/>
<vertex x="0.1828" y="1.4888"/>
<vertex x="-0.1828" y="1.4888"/>
<vertex x="-0.232" y="1.0049" curve="19.000773"/>
<vertex x="-0.5465" y="0.8746"/>
<vertex x="-0.9235" y="1.182"/>
<vertex x="-1.182" y="0.9235"/>
<vertex x="-0.8746" y="0.5465" curve="19.000773"/>
<vertex x="-1.0049" y="0.232"/>
<vertex x="-1.4888" y="0.1828"/>
<vertex x="-1.4888" y="-0.1828"/>
<vertex x="-1.0049" y="-0.232" curve="19.000773"/>
<vertex x="-0.8746" y="-0.5465"/>
<vertex x="-1.182" y="-0.9235"/>
<vertex x="-0.9235" y="-1.182"/>
<vertex x="-0.5465" y="-0.8746" curve="9.498218"/>
<vertex x="-0.3947" y="-0.9528"/>
<vertex x="-0.1794" y="-0.4331" curve="-67.514699"/>
<vertex x="-0.4688" y="0" curve="-247.473915"/>
<vertex x="0.1794" y="-0.4331"/>
</polygon>
</package>
<package name="DUMMY">
<description>NOTHING HERE!!! For when you want a symbol with no package as an option against symbols with a package.</description>
</package>
</packages>
</library>
<library name="SparkFun-Connectors">
<description>&lt;h3&gt;SparkFun Electronics' preferred foot prints&lt;/h3&gt;
In this library you'll find connectors and sockets- basically anything that can be plugged into or onto.&lt;br&gt;&lt;br&gt;
We've spent an enormous amount of time creating and checking these footprints and parts, but it is the end user's responsibility to ensure correctness and suitablity for a given componet or application. If you enjoy using this library, please buy one of our products at www.sparkfun.com.
&lt;br&gt;&lt;br&gt;
&lt;b&gt;Licensing:&lt;/b&gt; Creative Commons ShareAlike 4.0 International - https://creativecommons.org/licenses/by-sa/4.0/ 
&lt;br&gt;&lt;br&gt;
You are welcome to use this library for commercial purposes. For attribution, we ask that when you begin to sell your device using our footprint, you email us with a link to the product being sold. We want bragging rights that we helped (in a very small part) to create your 8th world wonder. We would like the opportunity to feature your device on our homepage.</description>
<packages>
<package name="POWER_JACK_PTH">
<wire x1="4.5" y1="13.7" x2="2.4" y2="13.7" width="0.2032" layer="21"/>
<wire x1="-4.5" y1="3" x2="-4.5" y2="0.1" width="0.2032" layer="51"/>
<wire x1="4.5" y1="0.1" x2="4.5" y2="3" width="0.2032" layer="51"/>
<wire x1="4.5" y1="0.1" x2="-4.5" y2="0.1" width="0.2032" layer="51"/>
<wire x1="4.5" y1="3" x2="4.5" y2="8.3" width="0.2032" layer="21"/>
<wire x1="4.5" y1="13.7" x2="4.5" y2="13" width="0.2032" layer="21"/>
<wire x1="-4.5" y1="3" x2="-4.5" y2="13.7" width="0.2032" layer="21"/>
<wire x1="-4.5" y1="13.7" x2="-2.4" y2="13.7" width="0.2032" layer="21"/>
<wire x1="-4.5" y1="3" x2="4.5" y2="3" width="0.2032" layer="21"/>
<pad name="PWR" x="0" y="13.7" drill="2.9972" diameter="4.318"/>
<pad name="GND" x="0" y="7.7" drill="2.9972" diameter="4.318"/>
<pad name="GNDBREAK" x="4.7" y="10.7" drill="2.9972" diameter="4.318" rot="R90"/>
<text x="-3.81" y="5.08" size="0.4064" layer="25">&gt;NAME</text>
<text x="-3.81" y="3.81" size="0.4064" layer="27">&gt;VALUE</text>
</package>
<package name="1X04">
<wire x1="6.985" y1="1.27" x2="8.255" y2="1.27" width="0.2032" layer="21"/>
<wire x1="8.255" y1="1.27" x2="8.89" y2="0.635" width="0.2032" layer="21"/>
<wire x1="8.89" y1="-0.635" x2="8.255" y2="-1.27" width="0.2032" layer="21"/>
<wire x1="3.81" y1="0.635" x2="4.445" y2="1.27" width="0.2032" layer="21"/>
<wire x1="4.445" y1="1.27" x2="5.715" y2="1.27" width="0.2032" layer="21"/>
<wire x1="5.715" y1="1.27" x2="6.35" y2="0.635" width="0.2032" layer="21"/>
<wire x1="6.35" y1="-0.635" x2="5.715" y2="-1.27" width="0.2032" layer="21"/>
<wire x1="5.715" y1="-1.27" x2="4.445" y2="-1.27" width="0.2032" layer="21"/>
<wire x1="4.445" y1="-1.27" x2="3.81" y2="-0.635" width="0.2032" layer="21"/>
<wire x1="6.985" y1="1.27" x2="6.35" y2="0.635" width="0.2032" layer="21"/>
<wire x1="6.35" y1="-0.635" x2="6.985" y2="-1.27" width="0.2032" layer="21"/>
<wire x1="8.255" y1="-1.27" x2="6.985" y2="-1.27" width="0.2032" layer="21"/>
<wire x1="-0.635" y1="1.27" x2="0.635" y2="1.27" width="0.2032" layer="21"/>
<wire x1="0.635" y1="1.27" x2="1.27" y2="0.635" width="0.2032" layer="21"/>
<wire x1="1.27" y1="-0.635" x2="0.635" y2="-1.27" width="0.2032" layer="21"/>
<wire x1="1.27" y1="0.635" x2="1.905" y2="1.27" width="0.2032" layer="21"/>
<wire x1="1.905" y1="1.27" x2="3.175" y2="1.27" width="0.2032" layer="21"/>
<wire x1="3.175" y1="1.27" x2="3.81" y2="0.635" width="0.2032" layer="21"/>
<wire x1="3.81" y1="-0.635" x2="3.175" y2="-1.27" width="0.2032" layer="21"/>
<wire x1="3.175" y1="-1.27" x2="1.905" y2="-1.27" width="0.2032" layer="21"/>
<wire x1="1.905" y1="-1.27" x2="1.27" y2="-0.635" width="0.2032" layer="21"/>
<wire x1="-1.27" y1="0.635" x2="-1.27" y2="-0.635" width="0.2032" layer="21"/>
<wire x1="-0.635" y1="1.27" x2="-1.27" y2="0.635" width="0.2032" layer="21"/>
<wire x1="-1.27" y1="-0.635" x2="-0.635" y2="-1.27" width="0.2032" layer="21"/>
<wire x1="0.635" y1="-1.27" x2="-0.635" y2="-1.27" width="0.2032" layer="21"/>
<wire x1="8.89" y1="0.635" x2="8.89" y2="-0.635" width="0.2032" layer="21"/>
<pad name="1" x="0" y="0" drill="1.016" diameter="1.8796" shape="square" rot="R90"/>
<pad name="2" x="2.54" y="0" drill="1.016" diameter="1.8796" rot="R90"/>
<pad name="3" x="5.08" y="0" drill="1.016" diameter="1.8796" rot="R90"/>
<pad name="4" x="7.62" y="0" drill="1.016" diameter="1.8796" rot="R90"/>
<text x="-1.3462" y="1.8288" size="1.27" layer="25" ratio="10">&gt;NAME</text>
<text x="-1.27" y="-3.175" size="1.27" layer="27">&gt;VALUE</text>
<rectangle x1="7.366" y1="-0.254" x2="7.874" y2="0.254" layer="51"/>
<rectangle x1="4.826" y1="-0.254" x2="5.334" y2="0.254" layer="51"/>
<rectangle x1="2.286" y1="-0.254" x2="2.794" y2="0.254" layer="51"/>
<rectangle x1="-0.254" y1="-0.254" x2="0.254" y2="0.254" layer="51"/>
</package>
</packages>
</library>
<library name="SparkFun-Passives">
<description>&lt;h3&gt;SparkFun Electronics' preferred foot prints&lt;/h3&gt;
In this library you'll find resistors, capacitors, inductors, test points, jumper pads, etc.&lt;br&gt;&lt;br&gt;
We've spent an enormous amount of time creating and checking these footprints and parts, but it is the end user's responsibility to ensure correctness and suitablity for a given componet or application. If you enjoy using this library, please buy one of our products at www.sparkfun.com.
&lt;br&gt;&lt;br&gt;
&lt;b&gt;Licensing:&lt;/b&gt; Creative Commons ShareAlike 4.0 International - https://creativecommons.org/licenses/by-sa/4.0/ 
&lt;br&gt;&lt;br&gt;
You are welcome to use this library for commercial purposes. For attribution, we ask that when you begin to sell your device using our footprint, you email us with a link to the product being sold. We want bragging rights that we helped (in a very small part) to create your 8th world wonder. We would like the opportunity to feature your device on our homepage.</description>
<packages>
<package name="0603-RES">
<wire x1="-1.473" y1="0.983" x2="1.473" y2="0.983" width="0.0508" layer="39"/>
<wire x1="1.473" y1="0.983" x2="1.473" y2="-0.983" width="0.0508" layer="39"/>
<wire x1="1.473" y1="-0.983" x2="-1.473" y2="-0.983" width="0.0508" layer="39"/>
<wire x1="-1.473" y1="-0.983" x2="-1.473" y2="0.983" width="0.0508" layer="39"/>
<wire x1="-0.356" y1="0.432" x2="0.356" y2="0.432" width="0.1016" layer="51"/>
<wire x1="-0.356" y1="-0.419" x2="0.356" y2="-0.419" width="0.1016" layer="51"/>
<smd name="1" x="-0.85" y="0" dx="1.1" dy="1" layer="1"/>
<smd name="2" x="0.85" y="0" dx="1.1" dy="1" layer="1"/>
<text x="-0.889" y="0.762" size="0.4064" layer="25" font="vector">&gt;NAME</text>
<text x="-1.016" y="-1.143" size="0.4064" layer="27" font="vector">&gt;VALUE</text>
<rectangle x1="-0.8382" y1="-0.4699" x2="-0.3381" y2="0.4801" layer="51"/>
<rectangle x1="0.3302" y1="-0.4699" x2="0.8303" y2="0.4801" layer="51"/>
<rectangle x1="-0.1999" y1="-0.3" x2="0.1999" y2="0.3" layer="35"/>
<rectangle x1="-0.2286" y1="-0.381" x2="0.2286" y2="0.381" layer="21"/>
</package>
<package name="0805">
<wire x1="-0.3" y1="0.6" x2="0.3" y2="0.6" width="0.1524" layer="21"/>
<wire x1="-0.3" y1="-0.6" x2="0.3" y2="-0.6" width="0.1524" layer="21"/>
<smd name="1" x="-0.9" y="0" dx="0.8" dy="1.2" layer="1"/>
<smd name="2" x="0.9" y="0" dx="0.8" dy="1.2" layer="1"/>
<text x="-0.762" y="0.8255" size="0.4064" layer="25">&gt;NAME</text>
<text x="-1.016" y="-1.397" size="0.4064" layer="27">&gt;VALUE</text>
</package>
</packages>
</library>
<library name="GeekAmmo">
<description>&lt;h3&gt;GeekAmmo  Library&lt;/h3&gt;

These are parts used by the GeekAmmo company (now part of SparkFun Electronics)!

 If you enjoy using this library, please buy one of our products at www.sparkfun.com.
&lt;br&gt;&lt;br&gt;
&lt;b&gt;Licensing:&lt;/b&gt;Creative Commons ShareAlike 4.0 International - https://creativecommons.org/licenses/by-sa/4.0/
&lt;br&gt;&lt;br&gt;
You are welcome to use this library for commercial purposes. For attribution, we ask that when you begin to sell your device using our footprint, you email us with a link to the product being sold. We want bragging rights that we helped (in a very small part) to create your 8th world wonder. We would like the opportunity to feature your device on our homepage.</description>
<packages>
<package name="SOT23-3">
<wire x1="-1.4224" y1="-0.3" x2="-1.4224" y2="0.6604" width="0.1524" layer="21"/>
<wire x1="-1.4224" y1="0.6604" x2="-0.6576" y2="0.6604" width="0.1524" layer="21"/>
<wire x1="1.4224" y1="0.6604" x2="1.4224" y2="-0.3" width="0.1524" layer="21"/>
<wire x1="0.6326" y1="0.6604" x2="1.4224" y2="0.6604" width="0.1524" layer="21"/>
<smd name="3" x="0" y="1" dx="0.8" dy="0.9" layer="1"/>
<smd name="2" x="0.95" y="-1" dx="0.8" dy="0.9" layer="1"/>
<smd name="1" x="-0.95" y="-1" dx="0.8" dy="0.9" layer="1"/>
<text x="-1.905" y="1.905" size="1.27" layer="25">&gt;NAME</text>
<text x="-1.905" y="-3.175" size="1.27" layer="27">&gt;VALUE</text>
</package>
</packages>
</library>
</libraries>
<attributes>
</attributes>
<variantdefs>
</variantdefs>
<classes>
<class number="0" name="default" width="0" drill="0">
</class>
</classes>
<designrules name="dirt_cheap_dirty_boards.v1 *">
<description language="en">&lt;b&gt;Dirty Cheap Dirty Board Design Rules&lt;/b&gt;
&lt;br&gt;
&lt;br&gt;Min width/Spacing: 5/5mil
&lt;br&gt;Min diameter of finished hole 12mil</description>
<param name="layerSetup" value="(1*16)"/>
<param name="mtCopper" value="0.035mm 0.0175mm 0.035mm 0.035mm 0.035mm 0.035mm 0.035mm 0.035mm 0.035mm 0.035mm 0.035mm 0.035mm 0.035mm 0.035mm 0.0175mm 0.035mm"/>
<param name="mtIsolate" value="1.2mm 1.1mm 0.2mm 0.15mm 0.2mm 0.15mm 0.2mm 0.15mm 0.2mm 0.15mm 0.2mm 0.15mm 0.2mm 0.15mm 0.2mm"/>
<param name="mdWireWire" value="8mil"/>
<param name="mdWirePad" value="8mil"/>
<param name="mdWireVia" value="8mil"/>
<param name="mdPadPad" value="8mil"/>
<param name="mdPadVia" value="8mil"/>
<param name="mdViaVia" value="8mil"/>
<param name="mdSmdPad" value="0mil"/>
<param name="mdSmdVia" value="0mil"/>
<param name="mdSmdSmd" value="0mil"/>
<param name="mdViaViaSameLayer" value="8mil"/>
<param name="mnLayersViaInSmd" value="2"/>
<param name="mdCopperDimension" value="10mil"/>
<param name="mdDrill" value="10mil"/>
<param name="mdSmdStop" value="0mil"/>
<param name="msWidth" value="5mil"/>
<param name="msDrill" value="12mil"/>
<param name="msMicroVia" value="12mil"/>
<param name="msBlindViaRatio" value="0.5"/>
<param name="rvPadTop" value="0.25"/>
<param name="rvPadInner" value="0.25"/>
<param name="rvPadBottom" value="0.25"/>
<param name="rvViaOuter" value="0.25"/>
<param name="rvViaInner" value="0.25"/>
<param name="rvMicroViaOuter" value="0.25"/>
<param name="rvMicroViaInner" value="0.25"/>
<param name="rlMinPadTop" value="10mil"/>
<param name="rlMaxPadTop" value="20mil"/>
<param name="rlMinPadInner" value="10mil"/>
<param name="rlMaxPadInner" value="20mil"/>
<param name="rlMinPadBottom" value="10mil"/>
<param name="rlMaxPadBottom" value="20mil"/>
<param name="rlMinViaOuter" value="6mil"/>
<param name="rlMaxViaOuter" value="20mil"/>
<param name="rlMinViaInner" value="6mil"/>
<param name="rlMaxViaInner" value="20mil"/>
<param name="rlMinMicroViaOuter" value="4mil"/>
<param name="rlMaxMicroViaOuter" value="20mil"/>
<param name="rlMinMicroViaInner" value="4mil"/>
<param name="rlMaxMicroViaInner" value="20mil"/>
<param name="psTop" value="-1"/>
<param name="psBottom" value="-1"/>
<param name="psFirst" value="0"/>
<param name="psElongationLong" value="100"/>
<param name="psElongationOffset" value="100"/>
<param name="mvStopFrame" value="1"/>
<param name="mvCreamFrame" value="0"/>
<param name="mlMinStopFrame" value="2mil"/>
<param name="mlMaxStopFrame" value="2mil"/>
<param name="mlMinCreamFrame" value="0mil"/>
<param name="mlMaxCreamFrame" value="0mil"/>
<param name="mlViaStopLimit" value="25mil"/>
<param name="srRoundness" value="0"/>
<param name="srMinRoundness" value="0mil"/>
<param name="srMaxRoundness" value="0mil"/>
<param name="slThermalIsolate" value="10mil"/>
<param name="slThermalsForVias" value="0"/>
<param name="dpMaxLengthDifference" value="10mm"/>
<param name="dpGapFactor" value="2.5"/>
<param name="checkGrid" value="0"/>
<param name="checkAngle" value="0"/>
<param name="checkFont" value="1"/>
<param name="checkRestrict" value="0"/>
<param name="useDiameter" value="13"/>
<param name="maxErrors" value="50"/>
</designrules>
<autorouter>
<pass name="Default">
<param name="RoutingGrid" value="50mil"/>
<param name="AutoGrid" value="1"/>
<param name="Efforts" value="0"/>
<param name="TopRouterVariant" value="1"/>
<param name="tpViaShape" value="round"/>
<param name="PrefDir.1" value="a"/>
<param name="PrefDir.2" value="0"/>
<param name="PrefDir.3" value="0"/>
<param name="PrefDir.4" value="0"/>
<param name="PrefDir.5" value="0"/>
<param name="PrefDir.6" value="0"/>
<param name="PrefDir.7" value="0"/>
<param name="PrefDir.8" value="0"/>
<param name="PrefDir.9" value="0"/>
<param name="PrefDir.10" value="0"/>
<param name="PrefDir.11" value="0"/>
<param name="PrefDir.12" value="0"/>
<param name="PrefDir.13" value="0"/>
<param name="PrefDir.14" value="0"/>
<param name="PrefDir.15" value="0"/>
<param name="PrefDir.16" value="a"/>
<param name="cfVia" value="8"/>
<param name="cfNonPref" value="5"/>
<param name="cfChangeDir" value="2"/>
<param name="cfOrthStep" value="2"/>
<param name="cfDiagStep" value="3"/>
<param name="cfExtdStep" value="0"/>
<param name="cfBonusStep" value="1"/>
<param name="cfMalusStep" value="1"/>
<param name="cfPadImpact" value="4"/>
<param name="cfSmdImpact" value="4"/>
<param name="cfBusImpact" value="0"/>
<param name="cfHugging" value="3"/>
<param name="cfAvoid" value="4"/>
<param name="cfPolygon" value="10"/>
<param name="cfBase.1" value="0"/>
<param name="cfBase.2" value="1"/>
<param name="cfBase.3" value="1"/>
<param name="cfBase.4" value="1"/>
<param name="cfBase.5" value="1"/>
<param name="cfBase.6" value="1"/>
<param name="cfBase.7" value="1"/>
<param name="cfBase.8" value="1"/>
<param name="cfBase.9" value="1"/>
<param name="cfBase.10" value="1"/>
<param name="cfBase.11" value="1"/>
<param name="cfBase.12" value="1"/>
<param name="cfBase.13" value="1"/>
<param name="cfBase.14" value="1"/>
<param name="cfBase.15" value="1"/>
<param name="cfBase.16" value="0"/>
<param name="mnVias" value="20"/>
<param name="mnSegments" value="9999"/>
<param name="mnExtdSteps" value="9999"/>
<param name="mnRipupLevel" value="10"/>
<param name="mnRipupSteps" value="100"/>
<param name="mnRipupTotal" value="100"/>
</pass>
<pass name="Follow-me" refer="Default" active="yes">
</pass>
<pass name="Busses" refer="Default" active="yes">
<param name="cfNonPref" value="4"/>
<param name="cfBusImpact" value="4"/>
<param name="cfHugging" value="0"/>
<param name="mnVias" value="0"/>
</pass>
<pass name="Route" refer="Default" active="yes">
</pass>
<pass name="Optimize1" refer="Default" active="yes">
<param name="cfVia" value="99"/>
<param name="cfExtdStep" value="10"/>
<param name="cfHugging" value="1"/>
<param name="mnExtdSteps" value="1"/>
<param name="mnRipupLevel" value="0"/>
</pass>
<pass name="Optimize2" refer="Optimize1" active="yes">
<param name="cfNonPref" value="0"/>
<param name="cfChangeDir" value="6"/>
<param name="cfExtdStep" value="0"/>
<param name="cfBonusStep" value="2"/>
<param name="cfMalusStep" value="2"/>
<param name="cfPadImpact" value="2"/>
<param name="cfSmdImpact" value="2"/>
<param name="cfHugging" value="0"/>
</pass>
<pass name="Optimize3" refer="Optimize2" active="yes">
<param name="cfChangeDir" value="8"/>
<param name="cfPadImpact" value="0"/>
<param name="cfSmdImpact" value="0"/>
</pass>
<pass name="Optimize4" refer="Optimize3" active="yes">
<param name="cfChangeDir" value="25"/>
</pass>
</autorouter>
<elements>
<element name="J1" library="SparkFun-Connectors" package="POWER_JACK_PTH" value="POWER_JACKPTH" x="-2.54" y="15.24" rot="R270">
<attribute name="PROD_ID" value="CONN-08197" x="-2.54" y="15.24" size="1.778" layer="27" rot="R270" display="off"/>
</element>
<element name="J2" library="SparkFun-Connectors" package="1X04" value="LED" x="17.78" y="25.4" smashed="yes">
<attribute name="PROD_ID" value="CONN-09696" x="17.78" y="25.4" size="1.778" layer="27" display="off"/>
<attribute name="VALUE" x="23.114" y="23.241" size="1.27" layer="25" rot="SR180"/>
</element>
<element name="J3" library="SparkFun-Connectors" package="1X04" value="MCU" x="17.78" y="5.08" smashed="yes">
<attribute name="PROD_ID" value="CONN-09696" x="17.78" y="5.08" size="1.778" layer="27" display="off"/>
<attribute name="VALUE" x="19.558" y="6.985" size="1.27" layer="25" rot="SR0"/>
</element>
<element name="LOGO1" library="SparkFun-Aesthetics" package="OSHW-LOGO-S" value="OSHW-LOGOS" x="33.782" y="10.16" smashed="yes" rot="R90"/>
<element name="R1" library="SparkFun-Passives" package="0603-RES" value="10k" x="28.448" y="14.986" smashed="yes" rot="R270">
<attribute name="NAME" x="29.21" y="15.875" size="0.4064" layer="25" font="vector" rot="R270"/>
<attribute name="VALUE" x="27.305" y="16.002" size="0.4064" layer="25" font="vector" rot="R270"/>
</element>
<element name="R2" library="SparkFun-Passives" package="0603-RES" value="10k" x="23.368" y="14.986" smashed="yes" rot="R270">
<attribute name="NAME" x="24.13" y="15.875" size="0.4064" layer="25" font="vector" rot="R270"/>
<attribute name="VALUE" x="22.225" y="16.002" size="0.4064" layer="25" font="vector" rot="R270"/>
</element>
<element name="R3" library="SparkFun-Passives" package="0603-RES" value="10k" x="18.288" y="14.986" smashed="yes" rot="R270">
<attribute name="NAME" x="19.05" y="15.875" size="0.4064" layer="25" font="vector" rot="R270"/>
<attribute name="VALUE" x="17.145" y="16.002" size="0.4064" layer="25" font="vector" rot="R270"/>
</element>
<element name="U$1" library="GeekAmmo" package="SOT23-3" value="N-CHANNEL-MOSFET-BSS138" x="27.432" y="19.812" smashed="yes" rot="R90">
<attribute name="ELEMENT14" value="2323154" x="27.432" y="19.812" size="1.778" layer="27" rot="R90" display="off"/>
<attribute name="URL" value="http://au.element14.com/fairchild-semiconductor/bss138/mosfet-n-ch-50v-220ma-sot-23/dp/2323154" x="27.432" y="19.812" size="1.778" layer="27" rot="R90" display="off"/>
<attribute name="DIGIKEY" value="BSS138TR-ND" x="27.432" y="19.812" size="1.778" layer="27" rot="R90" display="off"/>
<attribute name="OTHER" value="" x="27.432" y="19.812" size="1.778" layer="27" rot="R90" display="off"/>
<attribute name="DATASHEET" value="http://www.fairchildsemi.com/ds/BS/BSS138.pdf" x="27.432" y="19.812" size="1.778" layer="27" rot="R90" display="off"/>
</element>
<element name="U$2" library="GeekAmmo" package="SOT23-3" value="N-CHANNEL-MOSFET-BSS138" x="22.352" y="19.812" smashed="yes" rot="R90">
<attribute name="ELEMENT14" value="2323154" x="22.352" y="19.812" size="1.778" layer="27" rot="R90" display="off"/>
<attribute name="URL" value="http://au.element14.com/fairchild-semiconductor/bss138/mosfet-n-ch-50v-220ma-sot-23/dp/2323154" x="22.352" y="19.812" size="1.778" layer="27" rot="R90" display="off"/>
<attribute name="DIGIKEY" value="BSS138TR-ND" x="22.352" y="19.812" size="1.778" layer="27" rot="R90" display="off"/>
<attribute name="OTHER" value="" x="22.352" y="19.812" size="1.778" layer="27" rot="R90" display="off"/>
<attribute name="DATASHEET" value="http://www.fairchildsemi.com/ds/BS/BSS138.pdf" x="22.352" y="19.812" size="1.778" layer="27" rot="R90" display="off"/>
</element>
<element name="U$3" library="GeekAmmo" package="SOT23-3" value="N-CHANNEL-MOSFET-BSS138" x="17.272" y="19.812" smashed="yes" rot="R90">
<attribute name="ELEMENT14" value="2323154" x="17.272" y="19.812" size="1.778" layer="27" rot="R90" display="off"/>
<attribute name="URL" value="http://au.element14.com/fairchild-semiconductor/bss138/mosfet-n-ch-50v-220ma-sot-23/dp/2323154" x="17.272" y="19.812" size="1.778" layer="27" rot="R90" display="off"/>
<attribute name="DIGIKEY" value="BSS138TR-ND" x="17.272" y="19.812" size="1.778" layer="27" rot="R90" display="off"/>
<attribute name="OTHER" value="" x="17.272" y="19.812" size="1.778" layer="27" rot="R90" display="off"/>
<attribute name="DATASHEET" value="http://www.fairchildsemi.com/ds/BS/BSS138.pdf" x="17.272" y="19.812" size="1.778" layer="27" rot="R90" display="off"/>
</element>
<element name="R4" library="SparkFun-Passives" package="0603-RES" value="100" x="28.448" y="11.176" smashed="yes" rot="R90">
<attribute name="NAME" x="27.686" y="10.287" size="0.4064" layer="25" font="vector" rot="R90"/>
<attribute name="VALUE" x="29.591" y="10.16" size="0.4064" layer="25" font="vector" rot="R90"/>
</element>
<element name="R5" library="SparkFun-Passives" package="0603-RES" value="100" x="23.368" y="11.176" smashed="yes" rot="R90">
<attribute name="NAME" x="22.606" y="10.287" size="0.4064" layer="25" font="vector" rot="R90"/>
<attribute name="VALUE" x="24.511" y="10.16" size="0.4064" layer="25" font="vector" rot="R90"/>
</element>
<element name="R6" library="SparkFun-Passives" package="0603-RES" value="100" x="18.288" y="11.176" smashed="yes" rot="R90">
<attribute name="NAME" x="17.526" y="10.287" size="0.4064" layer="25" font="vector" rot="R90"/>
<attribute name="VALUE" x="19.431" y="10.16" size="0.4064" layer="25" font="vector" rot="R90"/>
</element>
<element name="FRAME1" library="SparkFun-Aesthetics" package="DUMMY" value="FRAME-LETTERNO_PACKAGE" x="-39.37" y="0">
<attribute name="DESIGNER" value="Nobody" x="-39.37" y="0" size="1.778" layer="27" display="off"/>
<attribute name="VERSION" value="v01" x="-39.37" y="0" size="1.778" layer="27" display="off"/>
</element>
<element name="C1" library="SparkFun-Passives" package="0805" value="10u" x="7.62" y="22.86"/>
</elements>
<signals>
<signal name="GND">
<contactref element="U$1" pad="2"/>
<contactref element="U$2" pad="2"/>
<contactref element="U$3" pad="2"/>
<contactref element="J3" pad="1"/>
<contactref element="R1" pad="1"/>
<contactref element="R3" pad="1"/>
<contactref element="R2" pad="1"/>
<wire x1="10.16" y1="5.08" x2="17.78" y2="5.08" width="1.4224" layer="1"/>
<polygon width="0.8128" layer="1">
<vertex x="0" y="29.21"/>
<vertex x="36.83" y="29.21"/>
<vertex x="36.83" y="0"/>
<vertex x="0" y="0"/>
</polygon>
<polygon width="0.8128" layer="16">
<vertex x="0" y="29.21"/>
<vertex x="36.83" y="29.21"/>
<vertex x="36.83" y="0"/>
<vertex x="0" y="0"/>
</polygon>
<contactref element="C1" pad="1"/>
<contactref element="J1" pad="GND"/>
<contactref element="J1" pad="GNDBREAK"/>
<wire x1="10.16" y1="5.08" x2="8.128" y2="7.112" width="1.4224" layer="1"/>
<wire x1="8.128" y1="7.112" x2="8.128" y2="10.508" width="1.4224" layer="1"/>
<wire x1="8.128" y1="10.508" x2="8.16" y2="10.54" width="1.4224" layer="1"/>
<wire x1="8.16" y1="10.54" x2="5.97" y2="10.54" width="1.4224" layer="1"/>
<wire x1="5.97" y1="10.54" x2="5.08" y2="11.43" width="1.4224" layer="1"/>
<wire x1="5.08" y1="11.43" x2="5.08" y2="15.16" width="1.4224" layer="1"/>
<wire x1="5.08" y1="15.16" x2="5.16" y2="15.24" width="1.4224" layer="1"/>
<wire x1="6.72" y1="22.86" x2="5.16" y2="21.3" width="0.6096" layer="1"/>
<wire x1="5.16" y1="21.3" x2="5.16" y2="15.24" width="0.6096" layer="1"/>
<wire x1="18.288" y1="15.836" x2="19.978" y2="15.836" width="0.4064" layer="1"/>
<wire x1="19.978" y1="15.836" x2="20.066" y2="15.748" width="0.4064" layer="1"/>
<wire x1="20.066" y1="15.748" x2="20.066" y2="13.716" width="0.4064" layer="1"/>
<wire x1="20.066" y1="13.716" x2="20.828" y2="12.954" width="0.4064" layer="1"/>
<via x="20.828" y="12.954" extent="1-16" drill="1"/>
<wire x1="20.828" y1="12.954" x2="20.828" y2="8.128" width="0.4064" layer="16"/>
<wire x1="20.828" y1="8.128" x2="17.78" y2="5.08" width="0.4064" layer="16"/>
<wire x1="23.368" y1="15.836" x2="25.058" y2="15.836" width="0.4064" layer="1"/>
<wire x1="25.058" y1="15.836" x2="25.654" y2="15.24" width="0.4064" layer="1"/>
<wire x1="25.654" y1="15.24" x2="25.654" y2="13.208" width="0.4064" layer="1"/>
<wire x1="25.654" y1="13.208" x2="25.908" y2="12.954" width="0.4064" layer="1"/>
<via x="25.908" y="12.954" extent="1-16" drill="1"/>
<wire x1="25.908" y1="12.954" x2="20.828" y2="12.954" width="0.4064" layer="16"/>
</signal>
<signal name="RED">
<contactref element="J3" pad="4"/>
<contactref element="R4" pad="1"/>
<wire x1="25.4" y1="5.08" x2="25.4" y2="7.278" width="0.4064" layer="1"/>
<wire x1="25.4" y1="7.278" x2="28.448" y2="10.326" width="0.4064" layer="1"/>
</signal>
<signal name="GREEN">
<contactref element="U$2" pad="1"/>
<contactref element="R5" pad="2"/>
<contactref element="R2" pad="2"/>
<wire x1="23.368" y1="14.136" x2="23.368" y2="12.026" width="0.4064" layer="1"/>
<wire x1="23.368" y1="14.136" x2="22.44" y2="14.136" width="0.4064" layer="1"/>
<wire x1="22.44" y1="14.136" x2="21.844" y2="14.732" width="0.4064" layer="1"/>
<wire x1="21.844" y1="14.732" x2="21.844" y2="16.51" width="0.4064" layer="1"/>
<wire x1="21.844" y1="16.51" x2="23.368" y2="18.034" width="0.4064" layer="1"/>
<wire x1="23.368" y1="18.034" x2="23.368" y2="18.846" width="0.4064" layer="1"/>
<wire x1="23.368" y1="18.846" x2="23.352" y2="18.862" width="0.4064" layer="1"/>
</signal>
<signal name="BLUE">
<contactref element="J3" pad="2"/>
<contactref element="R6" pad="1"/>
<wire x1="20.32" y1="5.08" x2="20.32" y2="8.294" width="0.4064" layer="1"/>
<wire x1="20.32" y1="8.294" x2="18.288" y2="10.326" width="0.4064" layer="1"/>
</signal>
<signal name="N$1">
<contactref element="U$3" pad="3"/>
<wire x1="16.272" y1="19.812" x2="16.002" y2="19.812" width="0.8128" layer="1"/>
<contactref element="J2" pad="2"/>
<wire x1="16.272" y1="19.812" x2="16.272" y2="21.352" width="0.6096" layer="1"/>
<wire x1="16.272" y1="21.352" x2="18.542" y2="23.622" width="0.6096" layer="1"/>
<wire x1="18.542" y1="23.622" x2="19.812" y2="23.622" width="0.6096" layer="1"/>
<wire x1="19.812" y1="23.622" x2="20.32" y2="24.13" width="0.6096" layer="1"/>
<wire x1="20.32" y1="24.13" x2="20.32" y2="25.4" width="0.6096" layer="1"/>
</signal>
<signal name="N$3">
<contactref element="U$1" pad="3"/>
<contactref element="J2" pad="4"/>
<wire x1="26.432" y1="19.812" x2="26.432" y2="24.368" width="0.6096" layer="1"/>
<wire x1="26.432" y1="24.368" x2="25.4" y2="25.4" width="0.6096" layer="1"/>
</signal>
<signal name="N$4">
<contactref element="U$3" pad="1"/>
<contactref element="R6" pad="2"/>
<contactref element="R3" pad="2"/>
<wire x1="18.288" y1="12.026" x2="18.288" y2="14.136" width="0.4064" layer="1"/>
<wire x1="18.288" y1="14.136" x2="17.36" y2="14.136" width="0.4064" layer="1"/>
<wire x1="17.36" y1="14.136" x2="16.764" y2="14.732" width="0.4064" layer="1"/>
<wire x1="16.764" y1="14.732" x2="16.764" y2="16.51" width="0.4064" layer="1"/>
<wire x1="16.764" y1="16.51" x2="18.288" y2="18.034" width="0.4064" layer="1"/>
<wire x1="18.288" y1="18.034" x2="18.288" y2="18.846" width="0.4064" layer="1"/>
<wire x1="18.288" y1="18.846" x2="18.272" y2="18.862" width="0.4064" layer="1"/>
</signal>
<signal name="N$5">
<contactref element="U$1" pad="1"/>
<contactref element="R4" pad="2"/>
<contactref element="R1" pad="2"/>
<wire x1="28.448" y1="12.026" x2="28.448" y2="14.136" width="0.4064" layer="1"/>
<wire x1="28.448" y1="14.136" x2="27.52" y2="14.136" width="0.4064" layer="1"/>
<wire x1="27.52" y1="14.136" x2="26.924" y2="14.732" width="0.4064" layer="1"/>
<wire x1="26.924" y1="14.732" x2="26.924" y2="16.51" width="0.4064" layer="1"/>
<wire x1="26.924" y1="16.51" x2="28.448" y2="18.034" width="0.4064" layer="1"/>
<wire x1="28.448" y1="18.034" x2="28.448" y2="18.846" width="0.4064" layer="1"/>
<wire x1="28.448" y1="18.846" x2="28.432" y2="18.862" width="0.4064" layer="1"/>
</signal>
<signal name="N$6">
<contactref element="R5" pad="1"/>
<contactref element="J3" pad="3"/>
<wire x1="22.86" y1="5.08" x2="23.368" y2="5.588" width="0.4064" layer="1"/>
<wire x1="23.368" y1="5.588" x2="23.368" y2="10.326" width="0.4064" layer="1"/>
</signal>
<signal name="N$8">
</signal>
<signal name="N$9">
</signal>
<signal name="N$2">
<contactref element="J1" pad="PWR"/>
<contactref element="C1" pad="2"/>
<contactref element="J2" pad="1"/>
<wire x1="17.78" y1="25.4" x2="15.367" y2="22.987" width="1.4224" layer="1"/>
<wire x1="15.367" y1="22.987" x2="11.16" y2="18.78" width="1.4224" layer="1"/>
<wire x1="11.16" y1="18.78" x2="11.16" y2="15.24" width="1.4224" layer="1"/>
<wire x1="8.52" y1="22.86" x2="15.24" y2="22.86" width="0.6096" layer="1"/>
<wire x1="15.24" y1="22.86" x2="15.367" y2="22.987" width="0.6096" layer="1"/>
</signal>
<signal name="N$7">
<contactref element="J2" pad="3"/>
<contactref element="U$2" pad="3"/>
<wire x1="21.352" y1="19.812" x2="21.352" y2="23.892" width="0.6096" layer="1"/>
<wire x1="21.352" y1="23.892" x2="22.86" y2="25.4" width="0.6096" layer="1"/>
</signal>
<signal name="N$10">
<via x="20.828" y="12.954" extent="1-16" drill="1"/>
</signal>
<signal name="N$11">
<via x="25.908" y="12.954" extent="1-16" drill="1"/>
</signal>
</signals>
</board>
</drawing>
</eagle>
